2034	2047	Charles_Manson
640	648	bin laden
158	166	Bin Laden
629	634	manson
606	613	you tube
1765	1778	marilyn manson
1252	1257	Manson
512	516	msnbc
349	353	osama
174	179	Manson
597	602	google
1302	1310	Bin Laden
1823	1836	charles manson
1969	1982	charles manson
1415	1426	Robert Cohen
230	241	Robert Cohen
541	554	charles manson
1892	1907	vincent bugliosi
1163	1169	chazwin
